You should read the README.txt but can ignore this file. It is used as part of
the test to see if files are writable on your site. If you see timestamps below 
this line those are security runs which were able to write to this file.
++++++++++++++++++++++++++++++++++++++++++++++++++++++++++++++++++++++++++++++++

20130110075540
20130110075625
20130110075731
20130110075739
